18fb3112f7eaad176dbb1959760cccf0be0a95e803239f9b3b3252607f1c9c0b bootstrap-stage0
ee13f3acb904a7119447e832ab92eaa1d254929d6c87d2e2b8fd2a4c03bb0598 bootstrap-stage1
94b4ca6691877a4085d5ce702dedb1da3a78d5a42014e40f4a88cd37d20f7f79 bootstrap-stage2
e60ab05e38be330bdd12229698a3f81891790aec1fff08316ba8377bd5a7837a bootstrap-stage3
