f8e65a619ce5250c9436e11e3c51395ae24f9a2f49a3a548cc839d48bd0fdd98 pallet-cgo
f94348fce321f0a5e87c6dbcccccefb5bb17c8da178f0d105f1b499906a62197 pallet-clang
e1786624920c496de288b6ac2018e5d4c0dad98cdaae034549130eda7d0da0ef pallet-clang-gnu-busybox
8939b5f14edd78d06f346d0308c20bc7a1c11adb5b23022eb7c72c6aafed4f76 pallet-cython
8b09a5150e9e66f75fc2f3ea68856c0033855cf210af3d06066e54e4b82bba86 pallet-gcc
db4a7605ba6b0a81bbea3673909b9f5121106e59829bee41c13c91ec8df0ff03 pallet-gcc-cmake-busybox
a30ebae22294514d99ed065dcf904fada71e96d22ce960264bcc1c3ad8b4ca66 pallet-gcc-gnu-busybox
30bf4c50bdb5f7e58a8d038adfa34f25ddefde06aa121167e2f41a9c4577e51d pallet-gcc-gnu-gnu
3d9a6d82ba9f91805434b5020d067e846bef09d8c22972918ba8dc903a0b8567 pallet-gcc-meson-busybox
da4d8eec91b2f34bb5cf4946f64fd46c4d914691435fa83dc6d777993e50de62 pallet-go
20b89ebbaf2e40ece4a37cdea13a1072b7d36f07e0ddcbd27d583c27d9bc4cbc pallet-python
3c0bef86b8b1325f74aea5ecf4ab26bc529f7f61fc440e5b1ab877e338ca0a06 pallet-rust
